{
    // Usare IntelliSense per informazioni sui possibili attributi.
    // Al passaggio del mouse vengono visualizzate le descrizioni degli attributi esistenti.
    // Per ulteriori informazioni, visitare: https://go.microsoft.com/fwlink/?linkid=830387
    "version": "0.2.0",
    "configurations": [
        {
            "name": "Debug Local File",
            "type": "Ruby",
            "request": "launch",
            "cwd": "${workspaceRoot}",
            "program": "${workspaceRoot}/main.rb"
        },
        {
            "name": "Listen for rdebug-ide",
            "type": "Ruby",
            "request": "attach",
            "cwd": "${workspaceRoot}",
            "remoteHost": "127.0.0.1",
            "remotePort": "1234",
            "remoteWorkspaceRoot": "${workspaceRoot}"
        },
        {
            "name": "Rails server",
            "type": "Ruby",
            "request": "launch",
            "cwd": "${workspaceRoot}",
            "program": "${workspaceRoot}/script/rails",
            "args": [
                "server",
                "-b",
                "0.0.0.0",
                "-p",
                "8081",
                "-e",
                "production"
            ]
            // "/home/<username>/torquebox/current/jruby/bin/jruby --1.9
            //  -e $stdout.sync=true;$stderr.sync=true;load($0=ARGV.shift)
            //  /home/<username>/RubymineProjects/oadr/script/rails server -b 0.0.0.0 -p 3000 -e production"

            // "/home/<username>/torquebox/current/jruby/bin/jruby --1.9
            //  -X+O -J-Djruby.compile.mode=OFF -J-Djruby.debug.fullTrace=true
            //   -e at_exit{sleep(1)};$stdout.sync=true;$stderr.sync=true;load($0=ARGV.shift)
            //    /home/<username>/.gem/jruby/1.9/gems/ruby-debug-ide-0.6.1.beta4/bin/rdebug-ide
            //     --disable-int-handler --evaluation-timeout 10 --rubymine-protocol-extensions --port 42403
            //      --host 0.0.0.0 --dispatcher-port 42979
            //       -- /home/<username>/RubymineProjects/oadr/script/rails
            //        server -b 0.0.0.0 -p 3000 -e production
        },
        {
            "name": "RSpec - all",
            "type": "Ruby",
            "request": "launch",
            "cwd": "${workspaceRoot}",
            "program": "${workspaceRoot}/bin/rspec",
            "args": [
                "-I",
                "${workspaceRoot}"
            ]
        },
        {
            "name": "RSpec - active spec file only",
            "type": "Ruby",
            "request": "launch",
            "cwd": "${workspaceRoot}",
            "program": "${workspaceRoot}/bin/rspec",
            "args": [
                "-I",
                "${workspaceRoot}",
                "${file}"
            ]
        },
        {
            "name": "Cucumber",
            "type": "Ruby",
            "request": "launch",
            "cwd": "${workspaceRoot}",
            "program": "${workspaceRoot}/bin/cucumber"
        }
    ]
}